{
    "output": {
        "blocklist": [
            "Yakuza4.exe"
        ],
        "equalizer": {
            "input-gain": -5.7,
            "left": {
                "band0": {
                    "frequency": 24.0,
                    "gain": 5.0,
                    "mode": "APO (DR)",
                    "mute": false,
                    "q": 0.8799999952316284,
                    "slope": "x1",
                    "solo": false,
                    "type": "Bell"
                },
                "band1": {
                    "frequency": 51.0,
                    "gain": 3.5,
                    "mode": "APO (DR)",
                    "mute": false,
                    "q": 1.7599999904632568,
                    "slope": "x1",
                    "solo": false,
                    "type": "Bell"
                },
                "band2": {
                    "frequency": 1038.0,
                    "gain": -4.800000190734863,
                    "mode": "APO (DR)",
                    "mute": false,
                    "q": 1.5800000429153442,
                    "slope": "x1",
                    "solo": false,
                    "type": "Bell"
                },
                "band3": {
                    "frequency": 7968.0,
                    "gain": 3.0999999046325684,
                    "mode": "APO (DR)",
                    "mute": false,
                    "q": 2.319999933242798,
                    "slope": "x1",
                    "solo": false,
                    "type": "Bell"
                },
                "band4": {
                    "frequency": 10682.0,
                    "gain": 3.0999999046325684,
                    "mode": "APO (DR)",
                    "mute": false,
                    "q": 1.7599999904632568,
                    "slope": "x1",
                    "solo": false,
                    "type": "Bell"
                },
                "band5": {
                    "frequency": 220.0,
                    "gain": -1.100000023841858,
                    "mode": "APO (DR)",
                    "mute": false,
                    "q": 1.8700000047683716,
                    "slope": "x1",
                    "solo": false,
                    "type": "Bell"
                },
                "band6": {
                    "frequency": 479.0,
                    "gain": -1.100000023841858,
                    "mode": "APO (DR)",
                    "mute": false,
                    "q": 3.4700000286102295,
                    "slope": "x1",
                    "solo": false,
                    "type": "Bell"
                },
                "band7": {
                    "frequency": 2252.0,
                    "gain": 1.399999976158142,
                    "mode": "APO (DR)",
                    "mute": false,
                    "q": 4.449999809265137,
                    "slope": "x1",
                    "solo": false,
                    "type": "Bell"
                },
                "band8": {
                    "frequency": 4309.0,
                    "gain": 4.099999904632568,
                    "mode": "APO (DR)",
                    "mute": false,
                    "q": 2.259999990463257,
                    "slope": "x1",
                    "solo": false,
                    "type": "Bell"
                },
                "band9": {
                    "frequency": 5586.0,
                    "gain": -4.800000190734863,
                    "mode": "APO (DR)",
                    "mute": false,
                    "q": 4.510000228881836,
                    "slope": "x1",
                    "solo": false,
                    "type": "Bell"
                }
            },
            "mode": "FIR",
            "num-bands": 10,
            "output-gain": 0.0,
            "right": {
                "band0": {
                    "frequency": 24.0,
                    "gain": 5.0,
                    "mode": "APO (DR)",
                    "mute": false,
                    "q": 0.8799999952316284,
                    "slope": "x1",
                    "solo": false,
                    "type": "Bell"
                },
                "band1": {
                    "frequency": 51.0,
                    "gain": 3.5,
                    "mode": "APO (DR)",
                    "mute": false,
                    "q": 1.7599999904632568,
                    "slope": "x1",
                    "solo": false,
                    "type": "Bell"
                },
                "band2": {
                    "frequency": 1038.0,
                    "gain": -4.800000190734863,
                    "mode": "APO (DR)",
                    "mute": false,
                    "q": 1.5800000429153442,
                    "slope": "x1",
                    "solo": false,
                    "type": "Bell"
                },
                "band3": {
                    "frequency": 7968.0,
                    "gain": 3.0999999046325684,
                    "mode": "APO (DR)",
                    "mute": false,
                    "q": 2.319999933242798,
                    "slope": "x1",
                    "solo": false,
                    "type": "Bell"
                },
                "band4": {
                    "frequency": 10682.0,
                    "gain": 3.0999999046325684,
                    "mode": "APO (DR)",
                    "mute": false,
                    "q": 1.7599999904632568,
                    "slope": "x1",
                    "solo": false,
                    "type": "Bell"
                },
                "band5": {
                    "frequency": 220.0,
                    "gain": -1.100000023841858,
                    "mode": "APO (DR)",
                    "mute": false,
                    "q": 1.8700000047683716,
                    "slope": "x1",
                    "solo": false,
                    "type": "Bell"
                },
                "band6": {
                    "frequency": 479.0,
                    "gain": -1.100000023841858,
                    "mode": "APO (DR)",
                    "mute": false,
                    "q": 3.4700000286102295,
                    "slope": "x1",
                    "solo": false,
                    "type": "Bell"
                },
                "band7": {
                    "frequency": 2252.0,
                    "gain": 1.399999976158142,
                    "mode": "APO (DR)",
                    "mute": false,
                    "q": 4.449999809265137,
                    "slope": "x1",
                    "solo": false,
                    "type": "Bell"
                },
                "band8": {
                    "frequency": 4309.0,
                    "gain": 4.099999904632568,
                    "mode": "APO (DR)",
                    "mute": false,
                    "q": 2.259999990463257,
                    "slope": "x1",
                    "solo": false,
                    "type": "Bell"
                },
                "band9": {
                    "frequency": 5586.0,
                    "gain": -4.800000190734863,
                    "mode": "APO (DR)",
                    "mute": false,
                    "q": 4.510000228881836,
                    "slope": "x1",
                    "solo": false,
                    "type": "Bell"
                }
            },
            "split-channels": false
        },
        "plugins_order": [
            "equalizer"
        ]
    }
}
